<svg xmlns="http://www.w3.org/2000/svg" xmlns:xlink="http://www.w3.org/1999/xlink" width="30" height="27" viewBox="0 0 30 27">
    <defs>
        <path id="prefix__a" d="M0 0L30 0 30 26.25 0 26.25z"/>
    </defs>
    <g fill="none" fill-rule="evenodd">
        <mask id="prefix__b" fill="#fff">
            <use xlink:href="#prefix__a"/>
        </mask>
        <path fill="#F77A8D" d="M15 20.156c-2.842 0-5.156-2.314-5.156-5.156 0-2.842 2.314-5.157 5.156-5.157 2.842 0 5.156 2.315 5.156 5.157S17.842 20.156 15 20.156zm0-12.188c-3.879 0-7.031 3.153-7.031 7.032 0 3.88 3.152 7.031 7.031 7.031 3.879 0 7.031-3.152 7.031-7.03 0-3.88-3.152-7.033-7.031-7.033zm15 15.47c0 1.552-1.26 2.812-2.812 2.812H2.812C1.26 26.25 0 24.99 0 23.437V6.562C0 5.01 1.26 3.75 2.812 3.75h5.157l.72-1.928C9.1.726 10.148 0 11.32 0h7.354c1.172 0 2.221.726 2.631 1.822l.726 1.928h5.157C28.74 3.75 30 5.01 30 6.562v16.875z" mask="url(#prefix__b)"/>
    </g>
</svg>
