<svg xmlns="http://www.w3.org/2000/svg" width="44" height="41" viewBox="0 0 44 41">
    <g fill="none" fill-rule="evenodd">
        <g>
            <g>
                <path fill="#FFF" d="M0 38.208h42.5H0z" transform="translate(-365 -176) translate(366 177)"/>
                <g>
                    <path stroke="#505050" stroke-linecap="round" stroke-linejoin="round" stroke-width=".85" d="M0 37.825L42.5 37.825" transform="translate(-365 -176) translate(366 177) translate(0 .383)"/>
                    <g>
                        <path fill="#FFF" d="M6.323 12.468S1.258 10.648.262 1.388C.198.794.632.26 1.225.195c.603-.065 1.136.376 1.2.979.37 3.538 1.672 6.989 4.112 8.37" transform="translate(-365 -176) translate(366 177) translate(0 .383) translate(30.6 5.1)"/>
                        <path stroke="#505050" stroke-linecap="round" stroke-linejoin="round" stroke-width=".85" d="M6.323 12.468S1.258 10.648.262 1.388C.198.794.632.26 1.225.195c.603-.065 1.136.376 1.2.979.37 3.538 1.672 6.989 4.112 8.37" transform="translate(-365 -176) translate(366 177) translate(0 .383) translate(30.6 5.1)"/>
                    </g>
                    <g>
                        <path fill="#FFF" d="M10.14 1.302L3.6 3.723s.314 3.12-.533 5.762c-.312.973-1.491 1.348-2.312.739-.403-.3-.629-.783-.6-1.285l.398-6.812L3.376.282" transform="translate(-365 -176) translate(366 177) translate(0 .383) translate(21.25 24.65)"/>
                        <path stroke="#505050" stroke-linecap="round" stroke-linejoin="round" stroke-width=".85" d="M10.14 1.302L3.6 3.723s.314 3.12-.533 5.762c-.312.973-1.491 1.348-2.312.739-.403-.3-.629-.783-.6-1.285l.398-6.812L3.376.282" transform="translate(-365 -176) translate(366 177) translate(0 .383) translate(21.25 24.65)"/>
                    </g>
                    <path fill="#FFF" d="M34.055 24.522l-4.759-3.534c1.844-1.394 2.953-2.943 3.766-4.344 5.14-8.848 9.356-2.256 3.627 5.02-.712.902-1.585 1.858-2.634 2.858" transform="translate(-365 -176) translate(366 177) translate(0 .383)"/>
                    <path stroke="#505050" stroke-linecap="round" stroke-linejoin="round" stroke-width=".85" d="M34.055 24.522l-4.759-3.534c1.844-1.394 2.953-2.943 3.766-4.344 5.14-8.848 9.356-2.256 3.627 5.02-.712.902-1.585 1.858-2.634 2.858z" transform="translate(-365 -176) translate(366 177) translate(0 .383)"/>
                    <path fill="#FFF" d="M35.685 8.088c-1.12 1.507-.805 3.635.702 4.754 1.506 1.119 3.635.805 4.754-.702 1.119-1.506.805-3.635-.702-4.754-1.506-1.119-3.635-.805-4.754.702" transform="translate(-365 -176) translate(366 177) translate(0 .383)"/>
                    <path stroke="#505050" stroke-linecap="round" stroke-linejoin="round" stroke-width=".85" d="M35.685 8.088c-1.12 1.507-.805 3.635.702 4.754 1.506 1.119 3.635.805 4.754-.702 1.119-1.506.805-3.635-.702-4.754-1.506-1.119-3.635-.805-4.754.702z" transform="translate(-365 -176) translate(366 177) translate(0 .383)"/>
                    <path fill="#FFF" d="M34.087 24.479s-1.58 3.6-5.212 2.395l-5.742-.224c-.257-.01-.49.148-.572.391-.277.82-.955 2.762-1.826 4.837-.333.795-1.323 1.07-2.016.555-.435-.323-.63-.879-.492-1.403l1.536-5.836c.242-.921.976-1.637 1.907-1.838 1.205-.26 3.478-.804 6.122-.955l1.537-1.456 4.758 3.534z" transform="translate(-365 -176) translate(366 177) translate(0 .383)"/>
                    <path stroke="#505050" stroke-linecap="round" stroke-linejoin="round" stroke-width=".85" d="M34.087 24.479s-1.58 3.6-5.212 2.395l-5.742-.224c-.257-.01-.49.148-.572.391-.277.82-.955 2.762-1.826 4.837-.333.795-1.323 1.07-2.016.555-.435-.323-.63-.879-.492-1.403l1.536-5.836c.242-.921.976-1.637 1.907-1.838 1.205-.26 3.478-.804 6.122-.955l1.537-1.456 4.758 3.534z" transform="translate(-365 -176) translate(366 177) translate(0 .383)"/>
                    <g>
                        <path fill="#FFF" d="M13.474 1.33s-3.128 4.378-12.31 2.818c-.59-.1-.985-.664-.886-1.252.1-.598.67-.99 1.268-.887 3.505.606 7.18.291 9.173-1.68" transform="translate(-365 -176) translate(366 177) translate(0 .383) translate(24.65 15.725)"/>
                        <path stroke="#505050" stroke-linecap="round" stroke-linejoin="round" stroke-width=".85" d="M13.474 1.33s-3.128 4.378-12.31 2.818c-.59-.1-.985-.664-.886-1.252.1-.598.67-.99 1.268-.887 3.505.606 7.18.291 9.173-1.68" transform="translate(-365 -176) translate(366 177) translate(0 .383) translate(24.65 15.725)"/>
                    </g>
                    <g>
                        <path fill="#FFF" d="M.04.261h13.422c.675 0 1.222.547 1.222 1.222 0 .675-.547 1.222-1.222 1.222H.04" transform="translate(-365 -176) translate(366 177) translate(0 .383) translate(9.35 7.225)"/>
                        <path stroke="#505050" stroke-linecap="round" stroke-linejoin="round" stroke-width=".85" d="M.04.261h13.422c.675 0 1.222.547 1.222 1.222 0 .675-.547 1.222-1.222 1.222H.04" transform="translate(-365 -176) translate(366 177) translate(0 .383) translate(9.35 7.225)"/>
                    </g>
                    <path fill="#FFF" d="M4.787 19.278h6.492c-.71-2.429-.674-4.515-.475-6.278 1.26-11.137-6.752-8.094-6.466 2.045.036 1.259.18 2.67.45 4.233" transform="translate(-365 -176) translate(366 177) translate(0 .383)"/>
                    <path stroke="#505050" stroke-linecap="round" stroke-linejoin="round" stroke-width=".85" d="M4.787 19.278h6.492c-.71-2.429-.674-4.515-.475-6.278 1.26-11.137-6.752-8.094-6.466 2.045.036 1.259.18 2.67.45 4.233z" transform="translate(-365 -176) translate(366 177) translate(0 .383)"/>
                    <path fill="#FFF" d="M14.087 3.764c0 2.056-1.667 3.722-3.722 3.722-2.056 0-3.722-1.666-3.722-3.722 0-2.055 1.666-3.722 3.722-3.722 2.055 0 3.722 1.667 3.722 3.722" transform="translate(-365 -176) translate(366 177) translate(0 .383)"/>
                    <path stroke="#505050" stroke-linecap="round" stroke-linejoin="round" stroke-width=".85" d="M14.087 3.764c0 2.056-1.667 3.722-3.722 3.722-2.056 0-3.722-1.666-3.722-3.722 0-2.055 1.666-3.722 3.722-3.722 2.055 0 3.722 1.667 3.722 3.722z" transform="translate(-365 -176) translate(366 177) translate(0 .383)"/>
                    <path fill="#FFF" d="M11.279 19.278l4.738 6.746c.347.493.59 1.05.717 1.64l1.764 8.21c.185.86-.47 1.672-1.35 1.672-.604 0-1.138-.392-1.318-.968l-2.557-8.166-4.632-6.415-5.254 14.63c-.198.55-.722.919-1.308.919-.935 0-1.604-.905-1.328-1.8l3.934-12.739s-.891-2.35.102-3.729h6.492z" transform="translate(-365 -176) translate(366 177) translate(0 .383)"/>
                    <path stroke="#505050" stroke-linecap="round" stroke-linejoin="round" stroke-width=".85" d="M11.279 19.278l4.738 6.746c.347.493.59 1.05.717 1.64l1.764 8.21c.185.86-.47 1.672-1.35 1.672-.604 0-1.138-.392-1.318-.968l-2.557-8.166-4.632-6.415-5.254 14.63c-.198.55-.722.919-1.308.919-.935 0-1.604-.905-1.328-1.8l3.934-12.739s-.891-2.35.102-3.729h6.492z" transform="translate(-365 -176) translate(366 177) translate(0 .383)"/>
                    <g>
                        <path fill="#FFF" d="M.112 2l4.273 3.52c.598.492 1.454.517 2.079.06l4.013-2.932c.603-.44.701-1.302.214-1.868C10.27.293 9.554.194 9.017.548l-3.72 2.46L2.002.103" transform="translate(-365 -176) translate(366 177) translate(0 .383) translate(6.375 8.5)"/>
                        <path stroke="#505050" stroke-linecap="round" stroke-linejoin="round" stroke-width=".85" d="M.112 2l4.273 3.52c.598.492 1.454.517 2.079.06l4.013-2.932c.603-.44.701-1.302.214-1.868C10.27.293 9.554.194 9.017.548l-3.72 2.46L2.002.103" transform="translate(-365 -176) translate(366 177) translate(0 .383) translate(6.375 8.5)"/>
                    </g>
                    <g>
                        <path fill="#FFF" d="M2.813 5.483L0.403 3.764 4.035 3.764 5.579 0.042 7.197 2.763 11.896 0.736 11.987 3.764 17.294 3.764 16.313 5.336" transform="translate(-365 -176) translate(366 177) translate(0 .383) translate(22.1)"/>
                        <path stroke="#FE9933" stroke-linecap="round" stroke-linejoin="round" stroke-width=".85" d="M2.813 5.483L0.403 3.764 4.035 3.764 5.579 0.042 7.197 2.763 11.896 0.736 11.987 3.764 17.294 3.764 16.313 5.336" transform="translate(-365 -176) translate(366 177) translate(0 .383) translate(22.1)"/>
                    </g>
                    <g>
                        <path fill="#FFF" d="M1.318 0.097L0.228 2.932 3.702 2.037 5.363 4.578 8.674 2.932 10.309 4.578" transform="translate(-365 -176) translate(366 177) translate(0 .383) translate(19.55 11.475)"/>
                        <path stroke="#FE9933" stroke-linecap="round" stroke-linejoin="round" stroke-width=".85" d="M1.318 0.097L0.228 2.932 3.702 2.037 5.363 4.578 8.674 2.932 10.309 4.578" transform="translate(-365 -176) translate(366 177) translate(0 .383) translate(19.55 11.475)"/>
                    </g>
                </g>
            </g>
        </g>
    </g>
</svg>
