<?xml version="1.0" encoding="UTF-8"?>
<svg width="27px" height="27px" viewBox="0 0 27 27" version="1.1" xmlns="http://www.w3.org/2000/svg" xmlns:xlink="http://www.w3.org/1999/xlink">
    <!-- Generator: Sketch 64 (93537) - https://sketch.com -->
    <title>Fill 1</title>
    <desc>Created with Sketch.</desc>
    <g id="Page-1" stroke="none" stroke-width="1" fill="none" fill-rule="evenodd">
        <g id="mvp-maker" transform="translate(-497.000000, -576.000000)" fill="#766FB1">
            <path d="M523.345,597.311 L511.061,602.879 C510.702,603.041 510.296,603.041 509.938,602.879 L497.654,597.311 C496.782,596.915 496.782,595.597 497.654,595.202 L500.706,593.818 L509.241,597.687 C509.641,597.869 510.064,597.96 510.499,597.96 C510.936,597.96 511.359,597.869 511.758,597.687 L520.293,593.818 L523.345,595.202 C524.218,595.597 524.218,596.915 523.345,597.311 M523.345,590.572 L511.061,596.139 C510.702,596.302 510.296,596.302 509.938,596.139 L497.654,590.572 C496.782,590.176 496.782,588.858 497.654,588.462 L500.718,587.074 L509.241,590.937 C509.641,591.119 510.064,591.21 510.499,591.21 C510.936,591.21 511.359,591.119 511.758,590.937 L520.282,587.074 L523.345,588.462 C524.218,588.858 524.218,590.176 523.345,590.572 M497.654,581.695 L509.939,576.123 C510.086,576.055 510.337,576 510.499,576 C510.662,576 510.913,576.055 511.061,576.123 L523.345,581.696 C524.217,582.091 524.217,583.411 523.345,583.806 L511.061,589.379 C510.702,589.542 510.296,589.542 509.938,589.379 L497.654,583.806 C496.782,583.411 496.782,582.091 497.654,581.695" id="Fill-1"></path>
        </g>
    </g>
</svg>