<svg xmlns="http://www.w3.org/2000/svg" width="23" height="22" viewBox="0 0 23 22">
    <path fill="#002C49" fill-rule="evenodd" d="M18.4 3.474c2.3 0 2.3 4.631 2.3 4.631H23V0H0v8.105h2.3s0-4.631 2.3-4.631h4.6v13.894s0 2.316-2.3 2.316H3.45V22h16.1v-2.316H16.1c-2.3 0-2.3-2.316-2.3-2.316V3.474h4.6z"/>
</svg>
